<xpml><page quantity='0' pitch='63.1 mm'></xpml>SIZE 53.4 mm, 63.1 mm
DIRECTION 0,0
REFERENCE 0,0
OFFSET 0 mm
SET PEEL OFF
SET CUTTER OFF
SET PARTIAL_CUTTER OFF
<xpml></page></xpml><xpml><page quantity='1' pitch='63.1 mm'></xpml>SET TEAR ON
CLS
CODEPAGE 1252
TEXT 411,490,"0",180,11,9,"RSUD DR. SOEDONO MADIUN"
TEXT 412,453,"0",180,4,4," Jl. dr. Soetomo No. 59 Madiun Telp. (0351) 464325/(0351) 464325. Fax. (0351) 458054."
BAR 23,436, 389, 3
BAR 23,303, 389, 3
TEXT 410,297,"0",180,8,7,"Nama Obat"
TEXT 129,297,"0",180,8,7,"Jml"
TEXT 71,297,"0",180,8,7,"ED"
TEXT 410,273,"0",180,9,8,"PROCLOZAM TAB"
TEXT 126,273,"0",180,9,8,"10"
TEXT 410,243,"0",180,9,8,"STELOSI 5MG TAB"
TEXT 126,243,"0",180,9,8,"4"
TEXT 410,214,"0",180,9,8,"KAPSUL KOSONG NO 1"
TEXT 126,214,"0",180,9,8,"10"
TEXT 410,186,"0",180,9,8," "
TEXT 126,186,"0",180,9,8," "
TEXT 410,151,"0",180,9,8," "
TEXT 126,151,"0",180,9,8," "
TEXT 410,121,"0",180,9,8," "
TEXT 126,121,"0",180,9,8," "
TEXT 410,92,"0",180,9,8," "
TEXT 126,92,"0",180,9,8," "
TEXT 410,64,"0",180,9,8," "
TEXT 126,64,"0",180,9,8," "
TEXT 316,429,"0",180,7,7,":"
TEXT 317,400,"0",180,7,7,":"
TEXT 317,366,"0",180,7,7,":"
TEXT 317,331,"0",180,7,7,":"
TEXT 300,367,"0",180,9,9,""
TEXT 300,331,"0",180,11,8,""
TEXT 137,429,"0",180,8,7,"02-Nov-2017"
TEXT 412,366,"0",180,8,7,"Tgl. Lahir"
TEXT 412,400,"0",180,8,7,"Nama"
TEXT 412,331,"0",180,8,7,"Medrec"
TEXT 412,428,"0",180,8,7,"No"
TEXT 300,428,"0",180,8,7,"000806799"
TEXT 300,400,"0",180,10,8,"SUSILOWATI, NY"
PRINT 1,1
<xpml></page></xpml><xpml><end/></xpml>




